10111
00111
11011
10011
11111
11011
10111
10011
11111
11011
11111
11101
10011
10010
00111
10111
11011
11111
11011
11111
10011
11111
00111
11011
00111
11011
10111
11010
11111
10011
11111
00111
11011
10111
