Test Vector 1 is : 000000
Output IDX 25 fault list is : 61 71 81 91 101 111 121 131 141 151 161 171 181 190 200 211 221 231 240 250 

Test Vector 2 is : 000001
Output IDX 25 fault list is : 61 71 81 91 101 111 120 130 141 151 160 171 180 190 201 210 220 230 241 250 

Test Vector 3 is : 000010
Output IDX 25 fault list is : 61 71 81 91 100 110 121 131 141 151 160 171 180 190 201 210 220 230 241 250 

Test Vector 4 is : 000011
Output IDX 25 fault list is : 61 71 81 91 100 110 120 130 141 151 161 171 181 190 200 211 221 231 240 250 

Test Vector 5 is : 000100
Output IDX 25 fault list is : 61 71 80 90 101 111 121 131 141 150 161 170 181 191 200 210 220 230 241 250 

Test Vector 6 is : 000101
Output IDX 25 fault list is : 61 71 80 90 101 111 120 130 141 150 160 170 180 191 201 211 221 231 240 250 

Test Vector 7 is : 000110
Output IDX 25 fault list is : 61 71 80 90 100 110 121 131 141 150 160 170 180 191 201 211 221 231 240 250 

Test Vector 8 is : 000111
Output IDX 25 fault list is : 61 71 80 90 100 110 120 130 141 150 161 170 181 191 200 210 220 230 241 250 

Test Vector 9 is : 001000
Output IDX 25 fault list is : 60 70 81 91 101 111 121 131 141 150 161 170 181 191 200 210 220 230 241 250 

Test Vector 10 is : 001001
Output IDX 25 fault list is : 60 70 81 91 101 111 120 130 141 150 160 170 180 191 201 211 221 231 240 250 

Test Vector 11 is : 001010
Output IDX 25 fault list is : 60 70 81 91 100 110 121 131 141 150 160 170 180 191 201 211 221 231 240 250 

Test Vector 12 is : 001011
Output IDX 25 fault list is : 60 70 81 91 100 110 120 130 141 150 161 170 181 191 200 210 220 230 241 250 

Test Vector 13 is : 001100
Output IDX 25 fault list is : 60 70 80 90 101 111 121 131 141 151 161 171 181 190 200 211 221 231 240 250 

Test Vector 14 is : 001101
Output IDX 25 fault list is : 60 70 80 90 101 111 120 130 141 151 160 171 180 190 201 210 220 230 241 250 

Test Vector 15 is : 001110
Output IDX 25 fault list is : 60 70 80 90 100 110 121 131 141 151 160 171 180 190 201 210 220 230 241 250 

Test Vector 16 is : 001111
Output IDX 25 fault list is : 60 70 80 90 100 110 120 130 141 151 161 171 181 190 200 211 221 231 240 250 

Test Vector 17 is : 010000
Output IDX 25 fault list is : 1 61 71 81 91 101 111 121 131 141 151 161 171 181 190 200 211 221 231 240 250 

Test Vector 18 is : 010001
Output IDX 25 fault list is : 1 61 71 81 91 101 111 120 130 141 151 160 171 180 190 201 210 220 230 241 250 

Test Vector 19 is : 010010
Output IDX 25 fault list is : 1 61 71 81 91 100 110 121 131 141 151 160 171 180 190 201 210 220 230 241 250 

Test Vector 20 is : 010011
Output IDX 25 fault list is : 1 61 71 81 91 100 110 120 130 141 151 161 171 181 190 200 211 221 231 240 250 

Test Vector 21 is : 010100
Output IDX 25 fault list is : 1 61 71 80 90 101 111 121 131 141 150 161 170 181 191 200 210 220 230 241 250 

Test Vector 22 is : 010101
Output IDX 25 fault list is : 1 61 71 80 90 101 111 120 130 141 150 160 170 180 191 201 211 221 231 240 250 

Test Vector 23 is : 010110
Output IDX 25 fault list is : 1 61 71 80 90 100 110 121 131 141 150 160 170 180 191 201 211 221 231 240 250 

Test Vector 24 is : 010111
Output IDX 25 fault list is : 1 61 71 80 90 100 110 120 130 141 150 161 170 181 191 200 210 220 230 241 250 

Test Vector 25 is : 011000
Output IDX 25 fault list is : 1 60 70 81 91 101 111 121 131 141 150 161 170 181 191 200 210 220 230 241 250 

Test Vector 26 is : 011001
Output IDX 25 fault list is : 1 60 70 81 91 101 111 120 130 141 150 160 170 180 191 201 211 221 231 240 250 

Test Vector 27 is : 011010
Output IDX 25 fault list is : 1 60 70 81 91 100 110 121 131 141 150 160 170 180 191 201 211 221 231 240 250 

Test Vector 28 is : 011011
Output IDX 25 fault list is : 1 60 70 81 91 100 110 120 130 141 150 161 170 181 191 200 210 220 230 241 250 

Test Vector 29 is : 011100
Output IDX 25 fault list is : 1 60 70 80 90 101 111 121 131 141 151 161 171 181 190 200 211 221 231 240 250 

Test Vector 30 is : 011101
Output IDX 25 fault list is : 1 60 70 80 90 101 111 120 130 141 151 160 171 180 190 201 210 220 230 241 250 

Test Vector 31 is : 011110
Output IDX 25 fault list is : 1 60 70 80 90 100 110 121 131 141 151 160 171 180 190 201 210 220 230 241 250 

Test Vector 32 is : 011111
Output IDX 25 fault list is : 1 60 70 80 90 100 110 120 130 141 151 161 171 181 190 200 211 221 231 240 250 

Test Vector 33 is : 100000
Output IDX 25 fault list is : 11 61 71 81 91 101 111 121 131 141 151 161 171 181 190 200 211 221 231 240 250 

Test Vector 34 is : 100001
Output IDX 25 fault list is : 11 61 71 81 91 101 111 120 130 141 151 160 171 180 190 201 210 220 230 241 250 

Test Vector 35 is : 100010
Output IDX 25 fault list is : 11 61 71 81 91 100 110 121 131 141 151 160 171 180 190 201 210 220 230 241 250 

Test Vector 36 is : 100011
Output IDX 25 fault list is : 11 61 71 81 91 100 110 120 130 141 151 161 171 181 190 200 211 221 231 240 250 

Test Vector 37 is : 100100
Output IDX 25 fault list is : 11 61 71 80 90 101 111 121 131 141 150 161 170 181 191 200 210 220 230 241 250 

Test Vector 38 is : 100101
Output IDX 25 fault list is : 11 61 71 80 90 101 111 120 130 141 150 160 170 180 191 201 211 221 231 240 250 

Test Vector 39 is : 100110
Output IDX 25 fault list is : 11 61 71 80 90 100 110 121 131 141 150 160 170 180 191 201 211 221 231 240 250 

Test Vector 40 is : 100111
Output IDX 25 fault list is : 11 61 71 80 90 100 110 120 130 141 150 161 170 181 191 200 210 220 230 241 250 

Test Vector 41 is : 101000
Output IDX 25 fault list is : 11 60 70 81 91 101 111 121 131 141 150 161 170 181 191 200 210 220 230 241 250 

Test Vector 42 is : 101001
Output IDX 25 fault list is : 11 60 70 81 91 101 111 120 130 141 150 160 170 180 191 201 211 221 231 240 250 

Test Vector 43 is : 101010
Output IDX 25 fault list is : 11 60 70 81 91 100 110 121 131 141 150 160 170 180 191 201 211 221 231 240 250 

Test Vector 44 is : 101011
Output IDX 25 fault list is : 11 60 70 81 91 100 110 120 130 141 150 161 170 181 191 200 210 220 230 241 250 

Test Vector 45 is : 101100
Output IDX 25 fault list is : 11 60 70 80 90 101 111 121 131 141 151 161 171 181 190 200 211 221 231 240 250 

Test Vector 46 is : 101101
Output IDX 25 fault list is : 11 60 70 80 90 101 111 120 130 141 151 160 171 180 190 201 210 220 230 241 250 

Test Vector 47 is : 101110
Output IDX 25 fault list is : 11 60 70 80 90 100 110 121 131 141 151 160 171 180 190 201 210 220 230 241 250 

Test Vector 48 is : 101111
Output IDX 25 fault list is : 11 60 70 80 90 100 110 120 130 141 151 161 171 181 190 200 211 221 231 240 250 

Test Vector 49 is : 110000
Output IDX 25 fault list is : 0 10 61 71 81 91 101 111 121 131 140 151 161 171 181 190 200 211 220 231 240 251 

Test Vector 50 is : 110001
Output IDX 25 fault list is : 0 10 61 71 81 91 101 111 120 130 140 151 160 171 180 190 201 210 221 230 241 251 

Test Vector 51 is : 110010
Output IDX 25 fault list is : 0 10 61 71 81 91 100 110 121 131 140 151 160 171 180 190 201 210 221 230 241 251 

Test Vector 52 is : 110011
Output IDX 25 fault list is : 0 10 61 71 81 91 100 110 120 130 140 151 161 171 181 190 200 211 220 231 240 251 

Test Vector 53 is : 110100
Output IDX 25 fault list is : 0 10 61 71 80 90 101 111 121 131 140 150 161 170 181 191 200 210 221 230 241 251 

Test Vector 54 is : 110101
Output IDX 25 fault list is : 0 10 61 71 80 90 101 111 120 130 140 150 160 170 180 191 201 211 220 231 240 251 

Test Vector 55 is : 110110
Output IDX 25 fault list is : 0 10 61 71 80 90 100 110 121 131 140 150 160 170 180 191 201 211 220 231 240 251 

Test Vector 56 is : 110111
Output IDX 25 fault list is : 0 10 61 71 80 90 100 110 120 130 140 150 161 170 181 191 200 210 221 230 241 251 

Test Vector 57 is : 111000
Output IDX 25 fault list is : 0 10 60 70 81 91 101 111 121 131 140 150 161 170 181 191 200 210 221 230 241 251 

Test Vector 58 is : 111001
Output IDX 25 fault list is : 0 10 60 70 81 91 101 111 120 130 140 150 160 170 180 191 201 211 220 231 240 251 

Test Vector 59 is : 111010
Output IDX 25 fault list is : 0 10 60 70 81 91 100 110 121 131 140 150 160 170 180 191 201 211 220 231 240 251 

Test Vector 60 is : 111011
Output IDX 25 fault list is : 0 10 60 70 81 91 100 110 120 130 140 150 161 170 181 191 200 210 221 230 241 251 

Test Vector 61 is : 111100
Output IDX 25 fault list is : 0 10 60 70 80 90 101 111 121 131 140 151 161 171 181 190 200 211 220 231 240 251 

Test Vector 62 is : 111101
Output IDX 25 fault list is : 0 10 60 70 80 90 101 111 120 130 140 151 160 171 180 190 201 210 221 230 241 251 

Test Vector 63 is : 111110
Output IDX 25 fault list is : 0 10 60 70 80 90 100 110 121 131 140 151 160 171 180 190 201 210 221 230 241 251 

Test Vector 64 is : 111111
Output IDX 25 fault list is : 0 10 60 70 80 90 100 110 120 130 140 151 161 171 181 190 200 211 220 231 240 251 

