0
1
10
11
20
21
30
31
40
41
50
51
60
61
70
71
80
81
90
91
100
101
110
111
120
121
130
131
140
141
150
151
160
161
170
171
180
181
190
191
200
201
210
211
220
221
230
231
240
241
250
251
260
261
270
271
280
281
290
291
300
301
310
311
400
401
320
321
7791
330
331
7801
340
341
7811
350
351
7821
360
361
7831
370
371
7841
380
381
7851
390
391
7861
5870
5871
5931
5880
5881
6121
5890
5891
8031
5900
5901
8351
5910
5911
12271
5920
5921
12911
5940
5941
6181
5950
5951
8041
5960
5961
8391
5970
5971
12291
5980
5981
12931
5990
5991
6051
6000
6001
6241
6010
6011
8051
6020
6021
8431
6030
6031
12311
6040
6041
12951
6060
6061
6301
6070
6071
8061
6080
6081
8471
6090
6091
12331
6100
6101
12971
6110
6111
6171
6130
6131
8071
6140
6141
8361
6150
6151
12351
6160
6161
12991
6190
6191
8081
6200
6201
8401
6210
6211
12371
6220
6221
13011
6230
6231
6291
6250
6251
8091
6260
6261
8441
6270
6271
12391
6280
6281
13031
6310
6311
8101
6320
6321
8481
6330
6331
12411
6340
6341
13051
6350
6351
6411
6360
6361
6601
6370
6371
8111
6380
6381
8371
6390
6391
12431
6400
6401
13071
6420
6421
6661
6430
6431
8121
6440
6441
8411
6450
6451
12451
6460
6461
13091
6470
6471
6531
6480
6481
6721
6490
6491
8131
6500
6501
8451
6510
6511
12471
6520
6521
13111
6540
6541
6781
6550
6551
8141
6560
6561
8491
6570
6571
12491
6580
6581
13131
6590
6591
6651
6610
6611
8151
6620
6621
8381
6630
6631
12511
6640
6641
13151
6670
6671
8161
6680
6681
8421
6690
6691
12531
6700
6701
13171
6710
6711
6771
6730
6731
8171
6740
6741
8461
6750
6751
12551
6760
6761
13191
6790
6791
8181
6800
6801
8501
6810
6811
12571
6820
6821
13211
6830
6831
6891
6840
6841
7081
6850
6851
8191
6860
6861
8511
6870
6871
12591
6880
6881
13231
6900
6901
7141
6910
6911
8201
6920
6921
8551
6930
6931
12611
6940
6941
13251
6950
6951
7011
6960
6961
7201
6970
6971
8211
6980
6981
8591
6990
6991
12631
7000
7001
13271
7020
7021
7261
7030
7031
8221
7040
7041
8631
7050
7051
12651
7060
7061
13291
7070
7071
7131
7090
7091
8231
7100
7101
8521
7110
7111
12671
7120
7121
13311
7150
7151
8241
7160
7161
8561
7170
7171
12691
7180
7181
13331
7190
7191
7251
7210
7211
8251
7220
7221
8601
7230
7231
12711
7240
7241
13351
7270
7271
8261
7280
7281
8641
7290
7291
12731
7300
7301
13371
7310
7311
7371
7320
7321
7561
7330
7331
8271
7340
7341
8531
7350
7351
12751
7360
7361
13391
7380
7381
7621
7390
7391
8281
7400
7401
8571
7410
7411
12771
7420
7421
13411
7430
7431
7491
7440
7441
7681
7450
7451
8291
7460
7461
8611
7470
7471
12791
7480
7481
13431
7500
7501
7741
7510
7511
8301
7520
7521
8651
7530
7531
12811
7540
7541
13451
7550
7551
7611
7570
7571
8311
7580
7581
8541
7590
7591
12831
7600
7601
13471
7630
7631
8321
7640
7641
8581
7650
7651
12851
7660
7661
13491
7670
7671
7731
7690
7691
8331
7700
7701
8621
7710
7711
12871
7720
7721
13511
7750
7751
8341
7760
7761
8661
7770
7771
12891
7780
7781
13531
7870
7871
10351
7880
7881
10431
7890
7891
10371
7900
7901
10451
7910
7911
10391
7920
7921
10471
7930
7931
10411
7940
7941
10491
7950
7951
10271
7960
7961
10511
7970
7971
10291
7980
7981
10531
7990
7991
10311
8000
8001
10551
8010
8011
10331
8020
8021
10571
8670
8671
8691
8680
8681
9311
8700
8701
9321
8710
8711
8731
8720
8721
9331
8740
8741
9341
8750
8751
8771
8760
8761
9351
8780
8781
9361
8790
8791
8811
8800
8801
9371
8820
8821
9381
8830
8831
8851
8840
8841
9391
8860
8861
9401
8870
8871
8891
8880
8881
9411
8900
8901
9421
8910
8911
8931
8920
8921
9431
8940
8941
9441
8950
8951
8971
8960
8961
9451
8980
8981
9461
8990
8991
9011
9000
9001
9471
9020
9021
9481
9030
9031
9051
9040
9041
9491
9060
9061
9501
9070
9071
9091
9080
9081
9511
9100
9101
9521
9110
9111
9131
9120
9121
9531
9140
9141
9541
9150
9151
9171
9160
9161
9551
9180
9181
9561
9190
9191
9211
9200
9201
9571
9220
9221
9581
9230
9231
9251
9240
9241
9591
9260
9261
9601
9270
9271
9291
9280
9281
9611
9300
9301
9621
9630
9631
9671
9640
9641
9721
9650
9651
10111
9660
9661
10151
9680
9681
9761
9690
9691
10121
9700
9701
10171
9710
9711
9751
9730
9731
10131
9740
9741
10161
9770
9771
10141
9780
9781
10181
9790
9791
9831
9800
9801
9881
9810
9811
10191
9820
9821
10231
9840
9841
9921
9850
9851
10201
9860
9861
10251
9870
9871
9911
9890
9891
10211
9900
9901
10241
9930
9931
10221
9940
9941
10261
9950
9951
10591
9960
9961
10751
9970
9971
10611
9980
9981
10771
9990
9991
10631
10000
10001
10791
10010
10011
10651
10020
10021
10811
10030
10031
10671
10040
10041
10831
10050
10051
10691
10060
10061
10851
10070
10071
10711
10080
10081
10871
10090
10091
10731
10100
10101
10891
10280
10281
10521
10300
10301
10541
10320
10321
10561
10340
10341
10581
10360
10361
10441
10380
10381
10461
10400
10401
10481
10420
10421
10501
10600
10601
10761
10620
10621
10781
10640
10641
10801
10660
10661
10821
10680
10681
10841
10700
10701
10861
10720
10721
10881
10740
10741
10901
10910
10911
10920
10921
10930
10931
10940
10941
10950
10951
10961
10971
11211
11911
10981
11331
11921
10990
10991
11951
11000
11001
11991
11010
11011
12031
11020
11021
12071
11030
11031
11040
11041
11050
11051
11060
11061
11070
11071
11081
11091
11221
11931
11101
11341
11941
11110
11111
11961
11120
11121
12001
11130
11131
12041
11140
11141
12081
11150
11151
11160
11161
11170
11171
11180
11181
11190
11191
11201
11230
11231
11971
11240
11241
12011
11250
11251
12051
11260
11261
12091
11270
11271
11280
11281
11290
11291
11300
11301
11310
11311
11321
11350
11351
11981
11360
11361
12021
11370
11371
12061
11380
11381
12101
11390
11391
11400
11401
11410
11411
11420
11421
11430
11431
11441
11451
11701
11891
11461
11581
11901
11470
11471
12121
11480
11481
12161
11490
11491
12201
11500
11501
12241
11510
11511
11520
11521
11530
11531
11540
11541
11550
11551
11561
11821
11571
11881
11590
11591
12141
11600
11601
12181
11610
11611
12221
11620
11621
12261
11630
11631
11640
11641
11650
11651
11660
11661
11670
11671
11681
11811
11691
11871
11710
11711
12131
11720
11721
12171
11730
11731
12211
11740
11741
12251
11750
11751
11760
11761
11770
11771
11780
11781
11790
11791
11801
11830
11831
12111
11840
11841
12151
11850
11851
12191
11860
11861
12231
12280
12281
12921
12300
12301
12941
12320
12321
12961
12340
12341
12981
12360
12361
13001
12380
12381
13021
12400
12401
13041
12420
12421
13061
12440
12441
13081
12460
12461
13101
12480
12481
13121
12500
12501
13141
12520
12521
13161
12540
12541
13181
12560
12561
13201
12580
12581
13221
12600
12601
13241
12620
12621
13261
12640
12641
13281
12660
12661
13301
12680
12681
13321
12700
12701
13341
12720
12721
13361
12740
12741
13381
12760
12761
13401
12780
12781
13421
12800
12801
13441
12820
12821
13461
12840
12841
13481
12860
12861
13501
12880
12881
13521
12900
12901
13541
